10 June 2021 at 9:52:29 pm IST[org.springframework.jms.JmsListenerEndpointContainer#0-1] com.ibm.msg.client.jms.internal.JmsProviderExceptionListener
An exception has been delivered to the connection's exception listener: '
                       Message : com.ibm.msg.client.jms.DetailedJMSException: JMSWMQ1107: A problem with this connection has occurred.
An error has occurred with the IBM MQ JMS connection.
Use the linked exception to determine the cause of this error.
                         Class : class com.ibm.msg.client.jms.DetailedJMSException
                         Stack : com.ibm.msg.client.wmq.common.internal.Reason.reasonToException(Reason.java:595)
                               : com.ibm.msg.client.wmq.common.internal.Reason.createException(Reason.java:215)
                               : com.ibm.msg.client.wmq.internal.WMQMessageConsumer.checkJmqiCallSuccess(WMQMessageConsumer.java:217)
                               : com.ibm.msg.client.wmq.internal.WMQMessageConsumer.checkJmqiCallSuccess(WMQMessageConsumer.java:156)
                               : com.ibm.msg.client.wmq.internal.WMQConsumerShadow.getMsg(WMQConsumerShadow.java:1858)
                               : com.ibm.msg.client.wmq.internal.WMQSyncConsumerShadow.receiveInternal(WMQSyncConsumerShadow.java:228)
                               : com.ibm.msg.client.wmq.internal.WMQConsumerShadow.receive(WMQConsumerShadow.java:1461)
                               : com.ibm.msg.client.wmq.internal.WMQMessageConsumer.receive(WMQMessageConsumer.java:674)
                               : com.ibm.msg.client.jms.internal.JmsMessageConsumerImpl.receiveInboundMessage(JmsMessageConsumerImpl.java:1051)
                               : com.ibm.msg.client.jms.internal.JmsMessageConsumerImpl.receive(JmsMessageConsumerImpl.java:667)
                               : com.ibm.mq.jms.MQMessageConsumer.receive(MQMessageConsumer.java:209)
                               : org.springframework.jms.support.destination.JmsDestinationAccessor.receiveFromConsumer(JmsDestinationAccessor.java:132)
                               : org.springframework.jms.listener.AbstractPollingMessageListenerContainer.receiveMessage(AbstractPollingMessageListenerContainer.java:418)
                               : org.springframework.jms.listener.AbstractPollingMessageListenerContainer.doReceiveAndExecute(AbstractPollingMessageListenerContainer.java:303)
                               : org.springframework.jms.listener.AbstractPollingMessageListenerContainer.receiveAndExecute(AbstractPollingMessageListenerContainer.java:257)
                               : org.springframework.jms.listener.DefaultMessageListenerContainer$AsyncMessageListenerInvoker.invokeListener(DefaultMessageListenerContainer.java:1237)
                               : org.springframework.jms.listener.DefaultMessageListenerContainer$AsyncMessageListenerInvoker.executeOngoingLoop(DefaultMessageListenerContainer.java:1227)
                               : org.springframework.jms.listener.DefaultMessageListenerContainer$AsyncMessageListenerInvoker.run(DefaultMessageListenerContainer.java:1120)
                               : java.lang.Thread.run(Thread.java:831)
     Caused by [1] --> Message : com.ibm.mq.MQException: JMSCMQ0001: IBM MQ call failed with compcode '2' ('MQCC_FAILED') reason '2009' ('MQRC_CONNECTION_BROKEN').
                         Class : class com.ibm.mq.MQException
                         Stack : com.ibm.msg.client.wmq.common.internal.Reason.createException(Reason.java:203)
                               : com.ibm.msg.client.wmq.internal.WMQMessageConsumer.checkJmqiCallSuccess(WMQMessageConsumer.java:217)
                               : com.ibm.msg.client.wmq.internal.WMQMessageConsumer.checkJmqiCallSuccess(WMQMessageConsumer.java:156)
                               : com.ibm.msg.client.wmq.internal.WMQConsumerShadow.getMsg(WMQConsumerShadow.java:1858)
                               : com.ibm.msg.client.wmq.internal.WMQSyncConsumerShadow.receiveInternal(WMQSyncConsumerShadow.java:228)
                               : com.ibm.msg.client.wmq.internal.WMQConsumerShadow.receive(WMQConsumerShadow.java:1461)
                               : com.ibm.msg.client.wmq.internal.WMQMessageConsumer.receive(WMQMessageConsumer.java:674)
                               : com.ibm.msg.client.jms.internal.JmsMessageConsumerImpl.receiveInboundMessage(JmsMessageConsumerImpl.java:1051)
                               : com.ibm.msg.client.jms.internal.JmsMessageConsumerImpl.receive(JmsMessageConsumerImpl.java:667)
                               : com.ibm.mq.jms.MQMessageConsumer.receive(MQMessageConsumer.java:209)
                               : org.springframework.jms.support.destination.JmsDestinationAccessor.receiveFromConsumer(JmsDestinationAccessor.java:132)
                               : org.springframework.jms.listener.AbstractPollingMessageListenerContainer.receiveMessage(AbstractPollingMessageListenerContainer.java:418)
                               : org.springframework.jms.listener.AbstractPollingMessageListenerContainer.doReceiveAndExecute(AbstractPollingMessageListenerContainer.java:303)
                               : org.springframework.jms.listener.AbstractPollingMessageListenerContainer.receiveAndExecute(AbstractPollingMessageListenerContainer.java:257)
                               : org.springframework.jms.listener.DefaultMessageListenerContainer$AsyncMessageListenerInvoker.invokeListener(DefaultMessageListenerContainer.java:1237)
                               : org.springframework.jms.listener.DefaultMessageListenerContainer$AsyncMessageListenerInvoker.executeOngoingLoop(DefaultMessageListenerContainer.java:1227)
                               : org.springframework.jms.listener.DefaultMessageListenerContainer$AsyncMessageListenerInvoker.run(DefaultMessageListenerContainer.java:1120)
                               : java.lang.Thread.run(Thread.java:831)
'.

EXPLANATION:
null

ACTION:
Review the exception details for further information.
--------------------------------------------------------------------
10 June 2021 at 9:52:29 pm IST[org.springframework.jms.JmsListenerEndpointContainer#0-1] com.ibm.msg.client.jms.internal.JmsProviderExceptionListener
The exception is ignored as no exception listener is registered: '
                       Message : com.ibm.msg.client.jms.DetailedJMSException: JMSWMQ1107: A problem with this connection has occurred.
An error has occurred with the IBM MQ JMS connection.
Use the linked exception to determine the cause of this error.
                         Class : class com.ibm.msg.client.jms.DetailedJMSException
                         Stack : com.ibm.msg.client.wmq.common.internal.Reason.reasonToException(Reason.java:595)
                               : com.ibm.msg.client.wmq.common.internal.Reason.createException(Reason.java:215)
                               : com.ibm.msg.client.wmq.internal.WMQSession.disconnect(WMQSession.java:835)
                               : com.ibm.msg.client.wmq.internal.WMQSession.close(WMQSession.java:786)
                               : com.ibm.msg.client.jms.internal.JmsSessionImpl.close(JmsSessionImpl.java:630)
                               : com.ibm.msg.client.jms.internal.JmsSessionImpl.close(JmsSessionImpl.java:353)
                               : com.ibm.mq.jms.MQSession.close(MQSession.java:275)
                               : org.springframework.jms.connection.CachingConnectionFactory$CachedSessionInvocationHandler.physicalClose(CachingConnectionFactory.java:505)
                               : org.springframework.jms.connection.CachingConnectionFactory$CachedSessionInvocationHandler.invoke(CachingConnectionFactory.java:335)
                               : jdk.proxy2.$Proxy64.close(null:-1)
                               : org.springframework.jms.support.JmsUtils.closeSession(JmsUtils.java:109)
                               : org.springframework.jms.listener.DefaultMessageListenerContainer$AsyncMessageListenerInvoker.clearResources(DefaultMessageListenerContainer.java:1289)
                               : org.springframework.jms.listener.DefaultMessageListenerContainer$AsyncMessageListenerInvoker.run(DefaultMessageListenerContainer.java:1135)
                               : java.lang.Thread.run(Thread.java:831)
     Caused by [1] --> Message : com.ibm.mq.MQException: JMSCMQ0001: IBM MQ call failed with compcode '2' ('MQCC_FAILED') reason '2009' ('MQRC_CONNECTION_BROKEN').
                         Class : class com.ibm.mq.MQException
                         Stack : com.ibm.msg.client.wmq.common.internal.Reason.createException(Reason.java:203)
                               : com.ibm.msg.client.wmq.internal.WMQSession.disconnect(WMQSession.java:835)
                               : com.ibm.msg.client.wmq.internal.WMQSession.close(WMQSession.java:786)
                               : com.ibm.msg.client.jms.internal.JmsSessionImpl.close(JmsSessionImpl.java:630)
                               : com.ibm.msg.client.jms.internal.JmsSessionImpl.close(JmsSessionImpl.java:353)
                               : com.ibm.mq.jms.MQSession.close(MQSession.java:275)
                               : org.springframework.jms.connection.CachingConnectionFactory$CachedSessionInvocationHandler.physicalClose(CachingConnectionFactory.java:505)
                               : org.springframework.jms.connection.CachingConnectionFactory$CachedSessionInvocationHandler.invoke(CachingConnectionFactory.java:335)
                               : jdk.proxy2.$Proxy64.close(null:-1)
                               : org.springframework.jms.support.JmsUtils.closeSession(JmsUtils.java:109)
                               : org.springframework.jms.listener.DefaultMessageListenerContainer$AsyncMessageListenerInvoker.clearResources(DefaultMessageListenerContainer.java:1289)
                               : org.springframework.jms.listener.DefaultMessageListenerContainer$AsyncMessageListenerInvoker.run(DefaultMessageListenerContainer.java:1135)
                               : java.lang.Thread.run(Thread.java:831)
     Caused by [2] --> Message : com.ibm.mq.jmqi.JmqiException: CC=2;RC=2009;AMQ9206: Error sending data to host '192.168.0.109/192.168.0.109:1414 (192.168.0.109)'. [1=com.ibm.mq.jmqi.JmqiException[CC=2;RC=2009],3=192.168.0.109/192.168.0.109:1414 (192.168.0.109),4=TCP,5=RemoteTCPConnection.send(byte [ ],int,int,int,int)]
                         Class : class com.ibm.mq.jmqi.JmqiException
                         Stack : com.ibm.mq.jmqi.remote.impl.RemoteTCPConnection.send(RemoteTCPConnection.java:1723)
                               : com.ibm.mq.jmqi.remote.impl.RemoteConnection.wrapSend(RemoteConnection.java:2991)
                               : com.ibm.mq.jmqi.remote.impl.RemoteConnection.sendTSH(RemoteConnection.java:2757)
                               : com.ibm.mq.jmqi.remote.impl.RemoteSession.sendTSH(RemoteSession.java:778)
                               : com.ibm.mq.jmqi.remote.impl.RemoteSession.sendTSH(RemoteSession.java:694)
                               : com.ibm.mq.jmqi.remote.api.RemoteFAP.MQDISC(RemoteFAP.java:1657)
                               : com.ibm.mq.jmqi.remote.api.RemoteFAP.MQDISC(RemoteFAP.java:1592)
                               : com.ibm.mq.ese.jmqi.InterceptedJmqiImpl.MQDISC(InterceptedJmqiImpl.java:431)
                               : com.ibm.mq.ese.jmqi.ESEJMQI.MQDISC(ESEJMQI.java:396)
                               : com.ibm.msg.client.wmq.internal.WMQSession.disconnect(WMQSession.java:823)
                               : com.ibm.msg.client.wmq.internal.WMQSession.close(WMQSession.java:786)
                               : com.ibm.msg.client.jms.internal.JmsSessionImpl.close(JmsSessionImpl.java:630)
                               : com.ibm.msg.client.jms.internal.JmsSessionImpl.close(JmsSessionImpl.java:353)
                               : com.ibm.mq.jms.MQSession.close(MQSession.java:275)
                               : org.springframework.jms.connection.CachingConnectionFactory$CachedSessionInvocationHandler.physicalClose(CachingConnectionFactory.java:505)
                               : org.springframework.jms.connection.CachingConnectionFactory$CachedSessionInvocationHandler.invoke(CachingConnectionFactory.java:335)
                               : jdk.proxy2.$Proxy64.close(null:-1)
                               : org.springframework.jms.support.JmsUtils.closeSession(JmsUtils.java:109)
                               : org.springframework.jms.listener.DefaultMessageListenerContainer$AsyncMessageListenerInvoker.clearResources(DefaultMessageListenerContainer.java:1289)
                               : org.springframework.jms.listener.DefaultMessageListenerContainer$AsyncMessageListenerInvoker.run(DefaultMessageListenerContainer.java:1135)
                               : java.lang.Thread.run(Thread.java:831)
     Caused by [3] --> Message : com.ibm.mq.jmqi.JmqiException: CC=2;RC=2009
                         Class : class com.ibm.mq.jmqi.JmqiException
                         Stack : com.ibm.mq.jmqi.remote.impl.RemoteConnection.asyncConnectionBroken(RemoteConnection.java:3852)
                               : com.ibm.mq.jmqi.remote.impl.RemoteRcvThread.run(RemoteRcvThread.java:587)
                               : com.ibm.msg.client.commonservices.workqueue.WorkQueueItem.runTask(WorkQueueItem.java:319)
                               : com.ibm.msg.client.commonservices.workqueue.SimpleWorkQueueItem.runItem(SimpleWorkQueueItem.java:99)
                               : com.ibm.msg.client.commonservices.workqueue.WorkQueueItem.run(WorkQueueItem.java:343)
                               : com.ibm.msg.client.commonservices.workqueue.WorkQueueManager.runWorkQueueItem(WorkQueueManager.java:312)
                               : com.ibm.msg.client.commonservices.j2se.workqueue.WorkQueueManagerImplementation$ThreadPoolWorker.run(WorkQueueManagerImplementation.java:1227)
     Caused by [4] --> Message : com.ibm.mq.jmqi.JmqiException: CC=2;RC=2009;AMQ9213: A communications error for 'TCP' occurred. [1=java.net.SocketException[Connection reset],4=TCP,5=sockInStream.read]
                         Class : class com.ibm.mq.jmqi.JmqiException
                         Stack : com.ibm.mq.jmqi.remote.impl.RemoteTCPConnection.receive(RemoteTCPConnection.java:1950)
                               : com.ibm.mq.jmqi.remote.impl.RemoteRcvThread.receiveBuffer(RemoteRcvThread.java:773)
                               : com.ibm.mq.jmqi.remote.impl.RemoteRcvThread.receiveOneTSH(RemoteRcvThread.java:739)
                               : com.ibm.mq.jmqi.remote.impl.RemoteRcvThread.run(RemoteRcvThread.java:156)
                               : com.ibm.msg.client.commonservices.workqueue.WorkQueueItem.runTask(WorkQueueItem.java:319)
                               : com.ibm.msg.client.commonservices.workqueue.SimpleWorkQueueItem.runItem(SimpleWorkQueueItem.java:99)
                               : com.ibm.msg.client.commonservices.workqueue.WorkQueueItem.run(WorkQueueItem.java:343)
                               : com.ibm.msg.client.commonservices.workqueue.WorkQueueManager.runWorkQueueItem(WorkQueueManager.java:312)
                               : com.ibm.msg.client.commonservices.j2se.workqueue.WorkQueueManagerImplementation$ThreadPoolWorker.run(WorkQueueManagerImplementation.java:1227)
     Caused by [5] --> Message : java.net.SocketException: Connection reset
                         Class : class java.net.SocketException
                         Stack : sun.nio.ch.NioSocketImpl.implRead(NioSocketImpl.java:323)
                               : sun.nio.ch.NioSocketImpl.read(NioSocketImpl.java:350)
                               : sun.nio.ch.NioSocketImpl$1.read(NioSocketImpl.java:803)
                               : java.net.Socket$SocketInputStream.read(Socket.java:976)
                               : com.ibm.mq.jmqi.remote.impl.RemoteTCPConnection.receive(RemoteTCPConnection.java:1939)
                               : com.ibm.mq.jmqi.remote.impl.RemoteRcvThread.receiveBuffer(RemoteRcvThread.java:773)
                               : com.ibm.mq.jmqi.remote.impl.RemoteRcvThread.receiveOneTSH(RemoteRcvThread.java:739)
                               : com.ibm.mq.jmqi.remote.impl.RemoteRcvThread.run(RemoteRcvThread.java:156)
                               : com.ibm.msg.client.commonservices.workqueue.WorkQueueItem.runTask(WorkQueueItem.java:319)
                               : com.ibm.msg.client.commonservices.workqueue.SimpleWorkQueueItem.runItem(SimpleWorkQueueItem.java:99)
                               : com.ibm.msg.client.commonservices.workqueue.WorkQueueItem.run(WorkQueueItem.java:343)
                               : com.ibm.msg.client.commonservices.workqueue.WorkQueueManager.runWorkQueueItem(WorkQueueManager.java:312)
                               : com.ibm.msg.client.commonservices.j2se.workqueue.WorkQueueManagerImplementation$ThreadPoolWorker.run(WorkQueueManagerImplementation.java:1227)
'.

EXPLANATION:
An attempt was made to deliver an exception to the connections exception listener but a listener has not been registered.

ACTION:
An exception listener must be registered with the connection to receive its exceptions.
--------------------------------------------------------------------
10 June 2021 at 9:55:33 pm IST[http-nio-8080-exec-3] com.ibm.msg.client.commonservices.util.SerializationValidator
No Allow list functionality enabled - either the properties were not set, or the security permissions prevent them being read

EXPLANATION:
null

ACTION:
null
--------------------------------------------------------------------
10 June 2021 at 9:57:05 pm IST[http-nio-8080-exec-1] com.ibm.msg.client.commonservices.util.SerializationValidator
No Allow list functionality enabled - either the properties were not set, or the security permissions prevent them being read

EXPLANATION:
null

ACTION:
null
--------------------------------------------------------------------
10 June 2021 at 10:01:42 pm IST[http-nio-8080-exec-1] com.ibm.msg.client.commonservices.util.SerializationValidator
No Allow list functionality enabled - either the properties were not set, or the security permissions prevent them being read

EXPLANATION:
null

ACTION:
null
--------------------------------------------------------------------
10 June 2021 at 10:03:49 pm IST[org.springframework.jms.JmsListenerEndpointContainer#0-1] com.ibm.msg.client.commonservices.util.SerializationValidator
No Allow list functionality enabled - either the properties were not set, or the security permissions prevent them being read

EXPLANATION:
null

ACTION:
null
--------------------------------------------------------------------
